{
  "project_info": {
    "project_number": "772830892938",
    "firebase_url": "https://authenticatordemo-efb4b.firebaseio.com",
    "project_id": "authenticatordemo-efb4b",
    "storage_bucket": "authenticatordemo-efb4b.appspot.com"
  },
  "client": [
    {
      "client_info": {
        "mobilesdk_app_id": "1:772830892938:android:2dcf172ec4e0034a",
        "android_client_info": {
          "package_name": "mobilestudio.io.demo.authenticatordemo"
        }
      },
      "oauth_client": [
        {
          "client_id": "772830892938-614fo2fdkk35kocsicqvt7d5upastale.apps.googleusercontent.com",
          "client_type": 1,
          "android_info": {
            "package_name": "mobilestudio.io.core.authenticator",
            "certificate_hash": "5ee51b340b2efe6f9f71fe47ab5c1432a4027cdd"
          }
        },
        {
          "client_id": "772830892938-d19dp8q1o7brmrg7nlt3sic9u58e2ot8.apps.googleusercontent.com",
          "client_type": 3
        }
      ],
      "api_key": [
        {
          "current_key": "AIzaSyBesOxo49qaOKWxXYdWefUMiiwhTch6V6c"
        }
      ],
      "services": {
        "analytics_service": {
          "status": 1
        },
        "appinvite_service": {
          "status": 2,
          "other_platform_oauth_client": [
            {
              "client_id": "772830892938-d19dp8q1o7brmrg7nlt3sic9u58e2ot8.apps.googleusercontent.com",
              "client_type": 3
            }
          ]
        },
        "ads_service": {
          "status": 2
        }
      }
    }
  ],
  "configuration_version": "1"
}